﻿#
#  Locale language support:Spanish
#

#
# RES_ID: Resource ID 
# MAX_LEN_OF_BYTE_FULL: Maximun length of full name (counted by bytes) 
# MAX_LEN_OF_BYTE_ABBR: Maximun length of abbreviated name (counted by bytes)
# FULL_IN_EN: Full English name
# ABBR_IN_EN: Abbreviated English name
# FULL_IN_LOCALE: Full name in locale language
# ABBR_IN_LOCALE: Abbreviated locale name
#
[LOCALE_LANGUAGE]
es


[RES_INFO]
#RES_ID	MAX_LEN_OF_BYTE_FULL	MAX_LEN_OF_BYTE_ABBR	FULL_IN_EN				ABBR_IN_EN		FULL_IN_LOCALE		ABBR_IN_LOCALE
1	32			15			Fuse 1						Fuse 1				Fusible 1			Fusible 1
2	32			15			Fuse 2						Fuse 2				Fusible 2			Fusible 2
3	32			15			Fuse 3						Fuse 3				Fusible 3			Fusible 3
4	32			15			Fuse 4						Fuse 4				Fusible 4			Fusible 4
5	32			15			Fuse 5						Fuse 5				Fusible 5			Fusible 5
6	32			15			Fuse 6						Fuse 6				Fusible 6			Fusible 6
7	32			15			Fuse 7						Fuse 7				Fusible 7			Fusible 7
8	32			15			Fuse 8						Fuse 8				Fusible 8			Fusible 8
9	32			15			Fuse 9						Fuse 9				Fusible 9			Fusible 9
10	32			15			Fuse 10						Fuse 10				Fusible 10			Fusible 10
11	32			15			Off						Off				Apagado			Apagado
12	32			15			On						On				En			En
13	32			15			Communication Fail				Comm Fail			Falla de comunicación		Falla Com
14	32			15			Existence State					Existence State		Estado existencia		Estado exist
15	32			15			Comm OK						Comm OK				Com ok		Com ok
16	32			15			Communication Fail				Comm Fail		Falla Com		Falla Com
17	32			15			Existent					Existent			Existente			Existente
18	32			15			Not Existent					Not Existent			No Existe			No Existe
19	32			15			Batt Fuse 1 Alarm					Fuse 1 Alm			电池熔丝1告警		熔丝1告警
20	32			15			Batt Fuse 2 Alarm					Fuse 2 Alm			电池熔丝2告警		熔丝2告警
21	32			15			Batt Fuse 3 Alarm					Fuse 3 Alm			电池熔丝3告警		熔丝3告警
22	32			15			Batt Fuse 4 Alarm					Fuse 4 Alm			电池熔丝4告警		熔丝4告警
23	32			15			Batt Fuse 5 Alarm					Fuse 5 Alm			电池熔丝5告警		熔丝5告警
24	32			15			Batt Fuse 6 Alarm					Fuse 6 Alm			电池熔丝6告警		熔丝6告警
25	32			15			Batt Fuse 7 Alarm					Fuse 7 Alm			电池熔丝7告警		熔丝7告警
26	32			15			Batt Fuse 8 Alarm					Fuse 8 Alm			电池熔丝8告警		熔丝8告警
27	32			15			Batt Fuse 9 Alarm					Fuse 9 Alm			电池熔丝9告警		熔丝9告警
28	32			15			Batt Fuse 10 Alarm					Fuse 10 Alm			电池熔丝10告警		熔丝10告警
29	32			15			SMDUEBattFuseUnit1					BattFuseUnit1			SMDUE电池熔丝单元1		电池熔丝单元1
30	32			15			SMDUEBattFuseUnit2					BattFuseUnit2			SMDUE电池熔丝单元2		电池熔丝单元2








